[
{
  "latlong":[-37.81208948,175.26180267],
  "cindex": 0.75
},
{
  "latlong":[-37.82544653,175.24085999],
  "cindex": 0.75
},
{
  "latlong":[-37.81480176,175.26360512],
  "cindex": 0.84
},
{
  "latlong":[-37.78021263,175.17288208],
  "cindex": 0.51
},
{
  "latlong":[-37.73841279,175.33527374],
  "cindex": 0.15
},
{
  "latlong":[-37.88217011,175.26111603],
  "cindex": 0.25
},
{
  "latlong":[-38.68550976,177.03369141],
  "cindex": 0.32
},
{
  "latlong":[-40.68063803,175.49560547],
  "cindex": 0.22
},
{
  "latlong":[-41.82045510,173.69384766],
  "cindex": 0.9
},
{
  "latlong":[-43.61221677,172.19970703],
  "cindex": 0.67
},
{
  "latlong":[-44.66865287,168.99169922],
  "cindex": 0.46
},
{
  "latlong":[-46.25584682,169.14550781],
  "cindex": 0.02
},
{
  "latlong":[-45.73685955,166.94824219],
  "cindex": 0.9
},
{
  "latlong":[-43.77109382,170.37597656],
  "cindex": 0.3
},
{
  "latlong":[-45.95114969,167.12402344],
  "cindex": 0.15
}
]
